%YAML 1.1
%TAG !u! tag:unity3d.com,2011:
--- !u!74 &7400000
AnimationClip:
  m_ObjectHideFlags: 0
  m_CorrespondingSourceObject: {fileID: 0}
  m_PrefabInstance: {fileID: 0}
  m_PrefabAsset: {fileID: 0}
  m_Name: Player_Walk_Black
  serializedVersion: 6
  m_Legacy: 0
  m_Compressed: 0
  m_UseHighQualityCurve: 1
  m_RotationCurves: []
  m_CompressedRotationCurves: []
  m_EulerCurves: []
  m_PositionCurves: []
  m_ScaleCurves: []
  m_FloatCurves: []
  m_PPtrCurves:
  - curve:
    - time: 0
      value: {fileID: 21300000, guid: 980b84939d2dd594baeac744e182c9b7, type: 3}
    - time: 0.05
      value: {fileID: 21300000, guid: c67b4b8e5904b8244a6c3ad98322f4d6, type: 3}
    - time: 0.1
      value: {fileID: 21300000, guid: 02e292faf6a31ab4dafd8000450e40c1, type: 3}
    - time: 0.15
      value: {fileID: 21300000, guid: 9ee6a0c57c5d48f478ccd605a7cfd4d4, type: 3}
    - time: 0.21666667
      value: {fileID: 21300000, guid: 729d8557e2cb28f4bbd3f740852948fb, type: 3}
    - time: 0.26666668
      value: {fileID: 21300000, guid: 2efbca46fb4cbc24f8ae3633642ef9fd, type: 3}
    - time: 0.31666666
      value: {fileID: 21300000, guid: 2f37fbfec381cbb40939bcdba44ea235, type: 3}
    - time: 0.36666667
      value: {fileID: 21300000, guid: 361dde849d134954a843b73d2b928c4d, type: 3}
    - time: 0.43333334
      value: {fileID: 21300000, guid: 4f5f76edb8933764e95eae41d0b91342, type: 3}
    - time: 0.48333332
      value: {fileID: 21300000, guid: b56b2e43e980b57409c53a544758c2ba, type: 3}
    - time: 0.53333336
      value: {fileID: 21300000, guid: 2dc34b64836ce7c4ebb0326d9c2ad7ea, type: 3}
    - time: 0.5833333
      value: {fileID: 21300000, guid: dd9f97b71a0fdbd429e7b9ae0f036bad, type: 3}
    - time: 0.65
      value: {fileID: 21300000, guid: 4d81983c4084bf14183d5b4300443dbf, type: 3}
    - time: 0.7
      value: {fileID: 21300000, guid: b15c71b7f6a13cc48af438bec69d37bc, type: 3}
    - time: 0.75
      value: {fileID: 21300000, guid: d983747208972e742b46aacf6070b577, type: 3}
    - time: 0.8
      value: {fileID: 21300000, guid: 74dc40612c2717d47b9e91562e302d01, type: 3}
    attribute: m_Sprite
    path: 
    classID: 212
    script: {fileID: 0}
  m_SampleRate: 60
  m_WrapMode: 0
  m_Bounds:
    m_Center: {x: 0, y: 0, z: 0}
    m_Extent: {x: 0, y: 0, z: 0}
  m_ClipBindingConstant:
    genericBindings:
    - serializedVersion: 2
      path: 0
      attribute: 0
      script: {fileID: 0}
      typeID: 212
      customType: 23
      isPPtrCurve: 1
    pptrCurveMapping:
    - {fileID: 21300000, guid: 980b84939d2dd594baeac744e182c9b7, type: 3}
    - {fileID: 21300000, guid: c67b4b8e5904b8244a6c3ad98322f4d6, type: 3}
    - {fileID: 21300000, guid: 02e292faf6a31ab4dafd8000450e40c1, type: 3}
    - {fileID: 21300000, guid: 9ee6a0c57c5d48f478ccd605a7cfd4d4, type: 3}
    - {fileID: 21300000, guid: 729d8557e2cb28f4bbd3f740852948fb, type: 3}
    - {fileID: 21300000, guid: 2efbca46fb4cbc24f8ae3633642ef9fd, type: 3}
    - {fileID: 21300000, guid: 2f37fbfec381cbb40939bcdba44ea235, type: 3}
    - {fileID: 21300000, guid: 361dde849d134954a843b73d2b928c4d, type: 3}
    - {fileID: 21300000, guid: 4f5f76edb8933764e95eae41d0b91342, type: 3}
    - {fileID: 21300000, guid: b56b2e43e980b57409c53a544758c2ba, type: 3}
    - {fileID: 21300000, guid: 2dc34b64836ce7c4ebb0326d9c2ad7ea, type: 3}
    - {fileID: 21300000, guid: dd9f97b71a0fdbd429e7b9ae0f036bad, type: 3}
    - {fileID: 21300000, guid: 4d81983c4084bf14183d5b4300443dbf, type: 3}
    - {fileID: 21300000, guid: b15c71b7f6a13cc48af438bec69d37bc, type: 3}
    - {fileID: 21300000, guid: d983747208972e742b46aacf6070b577, type: 3}
    - {fileID: 21300000, guid: 74dc40612c2717d47b9e91562e302d01, type: 3}
  m_AnimationClipSettings:
    serializedVersion: 2
    m_AdditiveReferencePoseClip: {fileID: 0}
    m_AdditiveReferencePoseTime: 0
    m_StartTime: 0
    m_StopTime: 0.81666666
    m_OrientationOffsetY: 0
    m_Level: 0
    m_CycleOffset: 0
    m_HasAdditiveReferencePose: 0
    m_LoopTime: 1
    m_LoopBlend: 0
    m_LoopBlendOrientation: 0
    m_LoopBlendPositionY: 0
    m_LoopBlendPositionXZ: 0
    m_KeepOriginalOrientation: 0
    m_KeepOriginalPositionY: 1
    m_KeepOriginalPositionXZ: 0
    m_HeightFromFeet: 0
    m_Mirror: 0
  m_EditorCurves: []
  m_EulerEditorCurves: []
  m_HasGenericRootTransform: 0
  m_HasMotionFloatCurves: 0
  m_Events: []
