%YAML 1.1
%TAG !u! tag:unity3d.com,2011:
--- !u!74 &7400000
AnimationClip:
  m_ObjectHideFlags: 0
  m_CorrespondingSourceObject: {fileID: 0}
  m_PrefabInstance: {fileID: 0}
  m_PrefabAsset: {fileID: 0}
  m_Name: Player_Idle_Black
  serializedVersion: 6
  m_Legacy: 0
  m_Compressed: 0
  m_UseHighQualityCurve: 1
  m_RotationCurves: []
  m_CompressedRotationCurves: []
  m_EulerCurves: []
  m_PositionCurves: []
  m_ScaleCurves: []
  m_FloatCurves: []
  m_PPtrCurves:
  - curve:
    - time: 0
      value: {fileID: 21300000, guid: 21786f09546c50e49b7f0847fad5e54f, type: 3}
    - time: 0.05
      value: {fileID: 21300000, guid: 21786f09546c50e49b7f0847fad5e54f, type: 3}
    - time: 0.1
      value: {fileID: 21300000, guid: 63548a2af85c6f3468d7221cc03cfe0b, type: 3}
    - time: 0.15
      value: {fileID: 21300000, guid: 2070104573b6be24db2a9aa87bbfbe18, type: 3}
    - time: 0.2
      value: {fileID: 21300000, guid: da157f1d6dd0dfa4f9481c45f6685e8c, type: 3}
    - time: 0.25
      value: {fileID: 21300000, guid: 6e6ef8b7fb34b4542b351ee17529f82f, type: 3}
    - time: 0.3
      value: {fileID: 21300000, guid: 2f2bca787c72fc242aca29260fab8ed8, type: 3}
    - time: 0.35
      value: {fileID: 21300000, guid: d95f190f90715ab40a37a14d5e3e8e0b, type: 3}
    - time: 0.4
      value: {fileID: 21300000, guid: 07cb9e8d9a315d54599617cf93a1da0e, type: 3}
    - time: 0.45
      value: {fileID: 21300000, guid: 86eddc100247acb4291217767b8bde54, type: 3}
    - time: 0.5
      value: {fileID: 21300000, guid: 6b19b4f9e501ab8429f97f152e387246, type: 3}
    - time: 0.55
      value: {fileID: 21300000, guid: 36558c156fc8826429c1f9c386726c60, type: 3}
    - time: 0.6
      value: {fileID: 21300000, guid: 1ca20c4e0c19037468ff378795273a82, type: 3}
    attribute: m_Sprite
    path: 
    classID: 212
    script: {fileID: 0}
  m_SampleRate: 60
  m_WrapMode: 0
  m_Bounds:
    m_Center: {x: 0, y: 0, z: 0}
    m_Extent: {x: 0, y: 0, z: 0}
  m_ClipBindingConstant:
    genericBindings:
    - serializedVersion: 2
      path: 0
      attribute: 0
      script: {fileID: 0}
      typeID: 212
      customType: 23
      isPPtrCurve: 1
    pptrCurveMapping:
    - {fileID: 21300000, guid: 21786f09546c50e49b7f0847fad5e54f, type: 3}
    - {fileID: 21300000, guid: 21786f09546c50e49b7f0847fad5e54f, type: 3}
    - {fileID: 21300000, guid: 63548a2af85c6f3468d7221cc03cfe0b, type: 3}
    - {fileID: 21300000, guid: 2070104573b6be24db2a9aa87bbfbe18, type: 3}
    - {fileID: 21300000, guid: da157f1d6dd0dfa4f9481c45f6685e8c, type: 3}
    - {fileID: 21300000, guid: 6e6ef8b7fb34b4542b351ee17529f82f, type: 3}
    - {fileID: 21300000, guid: 2f2bca787c72fc242aca29260fab8ed8, type: 3}
    - {fileID: 21300000, guid: d95f190f90715ab40a37a14d5e3e8e0b, type: 3}
    - {fileID: 21300000, guid: 07cb9e8d9a315d54599617cf93a1da0e, type: 3}
    - {fileID: 21300000, guid: 86eddc100247acb4291217767b8bde54, type: 3}
    - {fileID: 21300000, guid: 6b19b4f9e501ab8429f97f152e387246, type: 3}
    - {fileID: 21300000, guid: 36558c156fc8826429c1f9c386726c60, type: 3}
    - {fileID: 21300000, guid: 1ca20c4e0c19037468ff378795273a82, type: 3}
  m_AnimationClipSettings:
    serializedVersion: 2
    m_AdditiveReferencePoseClip: {fileID: 0}
    m_AdditiveReferencePoseTime: 0
    m_StartTime: 0
    m_StopTime: 0.6166667
    m_OrientationOffsetY: 0
    m_Level: 0
    m_CycleOffset: 0
    m_HasAdditiveReferencePose: 0
    m_LoopTime: 1
    m_LoopBlend: 0
    m_LoopBlendOrientation: 0
    m_LoopBlendPositionY: 0
    m_LoopBlendPositionXZ: 0
    m_KeepOriginalOrientation: 0
    m_KeepOriginalPositionY: 1
    m_KeepOriginalPositionXZ: 0
    m_HeightFromFeet: 0
    m_Mirror: 0
  m_EditorCurves: []
  m_EulerEditorCurves: []
  m_HasGenericRootTransform: 0
  m_HasMotionFloatCurves: 0
  m_Events: []
